Personal Documentation - 14 Longitudinal Data Analysis
…
# how many distinct in each
autism %>% count(sicdegp)

  sicdegp   n
1       1 192
2       2 255
3       3 165

Code

autism %>% count(sicdegp, childid) %>%
  pivot_wider(names_from = sicdegp, values_from = n)

# A tibble: 158 × 4
   childid   `1`   `2`   `3`
   <fct>   <int> <int> <int>
 1 2           5    NA    NA
 2 6           4    NA    NA
 3 8           3    NA    NA
 4 10          4    NA    NA
 5 13          3    NA    NA
 6 22          3    NA    NA
 7 31          4    NA    NA
 8 32          3    NA    NA
 9 38          5    NA    NA
10 41          3    NA    NA
# … with 148 more rows
# ℹ Use `print(n = ...)` to see more rows
…
