Personal Documentation - 16 Matrix Math
…
reg4_dia4plus_df <- reg4_dia4plus_df |> mutate(dia = as.numeric(dia),
                           islower = upper_fiedler > fiedler,
                           other_upper = 1 - 2 * sqrt(4 - 1)/4 * (1 - 2 / dia) + 2/dia,
                           other_islower = other_upper > fiedler) |> 
  arrange(islower, other_islower, desc(dia))

# among regular graphs, 13-14 nodes, 4+ diameter
reg4_dia4plus_df

# A tibble: 4,271 × 10
# Rowwise: 
   g        graph_id nodes   dia     k fiedler upper_f…¹ islower other…² other…³
   <list>      <int> <chr> <dbl> <dbl>   <dbl>     <dbl> <lgl>     <dbl> <lgl>  
 1 <igraph>        1 13        4     4   0.203     0.134 FALSE      1.07 TRUE   
 2 <igraph>        2 13        4     4   0.250     0.134 FALSE      1.07 TRUE   
 3 <igraph>        3 13        4     4   0.207     0.134 FALSE      1.07 TRUE   
 4 <igraph>        4 13        4     4   0.205     0.134 FALSE      1.07 TRUE   
 5 <igraph>        5 13        4     4   0.204     0.134 FALSE      1.07 TRUE   
 6 <igraph>        6 13        4     4   0.257     0.134 FALSE      1.07 TRUE   
 7 <igraph>        7 13        4     4   0.255     0.134 FALSE      1.07 TRUE   
 8 <igraph>        8 13        4     4   0.257     0.134 FALSE      1.07 TRUE   
 9 <igraph>        9 13        4     4   0.188     0.134 FALSE      1.07 TRUE   
10 <igraph>       10 13        4     4   0.192     0.134 FALSE      1.07 TRUE   
# … with 4,261 more rows, and abbreviated variable names ¹​upper_fiedler,
#   ²​other_upper, ³​other_islower
# ℹ Use `print(n = ...)` to see more rows
…
