Personal Documentation - 32 Time Series
…
# creating table for comparison
tibble(predict = ks$xp[1,,],
       filter = ks$xf[1,,],
       smooth = ks$xs[1,,],
       predict_sd = sqrt(ks$Pp[1,,]),
       filter_sd = sqrt(ks$Pf[1,,]),
       smooth_sd = sqrt(ks$Ps[1,,])) %>%
  mutate(across(predict:smooth, ~scales::number(.x, accuracy = .001)),
         across(predict_sd:smooth_sd, ~scales::number(.x,accuracy = .01))) %>% 
  transmute(predict = glue("{predict} ({predict_sd})"),
         filter = glue("{filter} ({filter_sd})"),
         smooth = glue("{smooth} ({smooth_sd})"))

# A tibble: 50 × 3
   predict       filter        smooth       
   <glue>        <glue>        <glue>       
 1 10.000 (4.58) -0.552 (0.98) -0.538 (0.77)
 2 -0.552 (1.40) -0.807 (0.81) -0.524 (0.69)
 3 -0.807 (1.29) -0.810 (0.79) -0.096 (0.67)
 4 -0.810 (1.27) 0.978 (0.79)  1.048 (0.67) 
 5 0.978 (1.27)  1.490 (0.79)  1.161 (0.67) 
 6 1.490 (1.27)  0.536 (0.79)  0.628 (0.67) 
 7 0.536 (1.27)  0.209 (0.79)  0.778 (0.67) 
 8 0.209 (1.27)  1.438 (0.79)  1.699 (0.67) 
 9 1.438 (1.27)  1.283 (0.79)  2.123 (0.67) 
10 1.283 (1.27)  3.726 (0.79)  3.481 (0.67) 
# … with 40 more rows
# ℹ Use `print(n = ...)` to see more rows
…
36.4.1 stats::StructTS

Code

nile_sts <- StructTS(Nile, "level")
# nile_sts %>% tsdiag() # diagnostics of structural model

# values from model.
tibble(
  times = time(Nile),
  filtered = fitted(nile_sts)[,"level"], # filtered values
  smoothed = tsSmooth(nile_sts)[,"level"]) # smoothed valuees

# A tibble: 100 × 3
   times filtered smoothed
   <dbl>    <dbl>    <dbl>
 1  1871    1120     1112.
 2  1872    1141.    1111.
 3  1873    1073.    1105.
 4  1874    1117.    1114.
 5  1875    1130.    1112.
 6  1876    1138.    1107.
 7  1877    1049.    1096.
 8  1878    1098.    1112.
 9  1879    1171.    1117.
10  1880    1163.    1098.
# … with 90 more rows
# ℹ Use `print(n = ...)` to see more rows
…
