Personal Documentation - 18 Mixed Models
…
Code

# broom.mixed alternative, with same output
broom.mixed::tidy(sleep_mod, effects = "ran_vals")

# A tibble: 36 × 6
   effect   group   level term        estimate std.error
   <chr>    <chr>   <chr> <chr>          <dbl>     <dbl>
 1 ran_vals Subject 308   (Intercept)    2.26       12.1
 2 ran_vals Subject 309   (Intercept)  -40.4        12.1
 3 ran_vals Subject 310   (Intercept)  -39.0        12.1
 4 ran_vals Subject 330   (Intercept)   23.7        12.1
 5 ran_vals Subject 331   (Intercept)   22.3        12.1
 6 ran_vals Subject 332   (Intercept)    9.04       12.1
 7 ran_vals Subject 333   (Intercept)   16.8        12.1
 8 ran_vals Subject 334   (Intercept)   -7.23       12.1
 9 ran_vals Subject 335   (Intercept)   -0.334      12.1
10 ran_vals Subject 337   (Intercept)   34.9        12.1
# … with 26 more rows
# ℹ Use `print(n = ...)` to see more rows
…
There is a blog post with this phenomena

27.2 Plot of Shrinkage (sleepstudy)

This stuff is from this blog post: https://www.tjmahr.com/plotting-partial-pooling-in-mixed-effects-models/

Looking at the shrinkage stuff though, there’s also from Bates

Code

sleepstudy <- sleepstudy %>% as_tibble() %>% mutate(Subject = as.character(Subject))
sleepstudy

# A tibble: 180 × 3
   Reaction  Days Subject
      <dbl> <dbl> <chr>  
 1     250.     0 308    
 2     259.     1 308    
 3     251.     2 308    
 4     321.     3 308    
 5     357.     4 308    
 6     415.     5 308    
 7     382.     6 308    
 8     290.     7 308    
 9     431.     8 308    
10     466.     9 308    
# … with 170 more rows
# ℹ Use `print(n = ...)` to see more rows
…
Code

# combine the two models
df_models <- bind_rows(df_pooled, df_no_pooling) %>%
  left_join(df_sleep, by = "Subject")
df_models

# A tibble: 365 × 6
   Model            Subject Intercept Slope_Days Reaction  Days
   <chr>            <chr>       <dbl>      <dbl>    <dbl> <dbl>
 1 Complete pooling 308          252.       10.3     250.     0
 2 Complete pooling 308          252.       10.3     259.     1
 3 Complete pooling 308          252.       10.3     251.     2
 4 Complete pooling 308          252.       10.3     321.     3
 5 Complete pooling 308          252.       10.3     357.     4
 6 Complete pooling 308          252.       10.3     415.     5
 7 Complete pooling 308          252.       10.3     382.     6
 8 Complete pooling 308          252.       10.3     290.     7
 9 Complete pooling 308          252.       10.3     431.     8
10 Complete pooling 308          252.       10.3     466.     9
# … with 355 more rows
# ℹ Use `print(n = ...)` to see more rows
…
