Personal Documentation - 5 Categorical Data Analysis
…
We can look at the top models for model selection here, and find that df

Code

placekick_bin_data <- placekick |> group_by(distance) |> dplyr::summarize(y = sum(good),n = n(), p = y/n)
placekick_bin_data

# A tibble: 43 × 4
   distance     y     n     p
      <int> <int> <int> <dbl>
 1       18     2     3 0.667
 2       19     7     7 1    
 3       20   776   789 0.984
 4       21    19    20 0.95 
 5       22    12    14 0.857
 6       23    26    27 0.963
 7       24     7     7 1    
 8       25    12    13 0.923
 9       26     8     9 0.889
10       27    24    29 0.828
# … with 33 more rows
# ℹ Use `print(n = ...)` to see more rows
…
Code

# the predicted probabilities by each of the covariates.
bind_cols(housing_wide %>% dplyr::select(Infl, Type, Cont),
          fitted(housing_vglm2))

# A tibble: 24 × 6
   Infl   Type      Cont    Low Medium  High
   <fct>  <fct>     <fct> <dbl>  <dbl> <dbl>
 1 Low    Tower     Low   0.396  0.260 0.344
 2 Medium Tower     Low   0.260  0.267 0.472
 3 High   Tower     Low   0.150  0.192 0.657
 4 Low    Apartment Low   0.543  0.231 0.226
 5 Medium Apartment Low   0.395  0.262 0.343
 6 High   Apartment Low   0.255  0.211 0.534
 7 Low    Atrium    Low   0.429  0.322 0.249
 8 Medium Atrium    Low   0.296  0.347 0.357
 9 High   Atrium    Low   0.187  0.272 0.542
10 Low    Terrace   Low   0.645  0.218 0.137
# … with 14 more rows
# ℹ Use `print(n = ...)` to see more rows
…
